Brasil x Argentina, tidytext e Machine Learning · Fellipe Gomes
…
Não poderia esquecer, além da nuvem, a função também retorna um dataframe com a frequência das palavras:

df %>% as_tibble()

## # A tibble: 29,064 x 2
##    words          freq  
##    <chr>          <chr> 
##  1 =              "2795"
##  2 brasil copa    "2061"
##  3 copa mundo     "1959"
##  4 hat trick      "1327"
##  5 = hoje         "1248"
##  6 hoje brasil    "1215"
##  7 mundo          " 852"
##  8 isl ndia       " 820"
##  9 pra copa       " 813"
## 10 estreia brasil " 782"
## # … with 29,054 more rows
…
stop_words = data_frame(word = c(stopwords::stopwords("pt"), excludewords))

tidy_books <- original_books %>%
  unnest_tokens(word, text) %>% 
  anti_join(stop_words)
Portando a base de dados após a limpeza e a remoção das stop words:

#Palavras mais faladas:
tidy_books %>% count(word, sort = TRUE) 

## # A tibble: 3,900 x 2
##    word          n
##    <chr>     <int>
##  1 copa       6993
##  2 brasil     4164
##  3 argentina  3487
##  4 mundo      2030
##  5 hoje       1825
##  6 letras     1562
##  7 messi      1493
##  8 estreia    1107
##  9 est         866
## 10 isl         828
## # … with 3,890 more rows
…
library(tidyr)

book_sentiment <- tidy_books %>%
  inner_join(sentiment) %>%
  count(book,word, index = line , sentiment) %>%
  spread(sentiment, n, fill = 0) %>%
  mutate(sentiment = positive - negative) %T>%
  print

## # A tibble: 2,953 x 7
##    book  word      index negative neutro positive sentiment
##    <chr> <chr>     <int>    <dbl>  <dbl>    <dbl>     <dbl>
##  1 arg   abandonar   857        1      0        0        -1
##  2 arg   absurdo     849        1      0        0        -1
##  3 arg   absurdo    1863        1      0        0        -1
##  4 arg   afogado    2275        1      0        0        -1
##  5 arg   afogado    3659        1      0        0        -1
##  6 arg   alegria    1134        0      0        1         1
##  7 arg   almo        186        0      0        1         1
##  8 arg   almo       2828        0      0        1         1
##  9 arg   almo       3433        0      0        1         1
## 10 arg   almo       3569        0      0        1         1
## # … with 2,943 more rows
…
## $text
## [1] "RT @DavidmeMelo: @SantiiSanchez16 @Flamengo Perder a copa para o time mais sujo e mais corrupto da argentina \xe9 assim mesmo https://t.co/zIC\x85"

Para positivas:

tidy_books %>%
  semi_join(bingpositive) %>%
  group_by(book, line) %>%
  summarize(positivewords = n()) %>%
  left_join(wordcounts, by = c("book", "line")) %>%
  mutate(ratio = positivewords/words) %>%
  top_n(5) %>%
  ungroup() %>% arrange(desc(ratio))

## # A tibble: 22 x 5
##    book   line positivewords words ratio
##    <chr> <int>         <int> <int> <dbl>
##  1 arg    2120             3     9 0.333
##  2 br     2374             1     3 0.333
##  3 arg    3272             2     7 0.286
##  4 arg    2301             1     4 0.25 
##  5 br      126             1     4 0.25 
##  6 br      553             2     8 0.25 
##  7 br     1499             2     8 0.25 
##  8 br     2054             2     8 0.25 
##  9 br     2591             1     4 0.25 
## 10 arg    2130             1     5 0.2  
## # … with 12 more rows
…
total_words <- book_words %>% 
  group_by(book) %>% 
  summarize(total = sum(n))

book_words <- left_join(book_words, total_words)

# tf-idf:
book_words <- book_words %>%
  bind_tf_idf(word, book, n)

book_words %>%
  arrange(desc(tf_idf))

## # A tibble: 4,773 x 7
##    book  word              n total      tf   idf  tf_idf
##    <chr> <chr>         <int> <int>   <dbl> <dbl>   <dbl>
##  1 br    letras         1562 30429 0.0513  0.693 0.0356 
##  2 br    ansioso         688 30429 0.0226  0.693 0.0157 
##  3 arg   classificou     666 40781 0.0163  0.693 0.0113 
##  4 arg   segundo         654 40781 0.0160  0.693 0.0111 
##  5 arg   especialistas   649 40781 0.0159  0.693 0.0110 
##  6 arg   nalti           649 40781 0.0159  0.693 0.0110 
##  7 arg   repito          649 40781 0.0159  0.693 0.0110 
##  8 br    icon            248 30429 0.00815 0.693 0.00565
##  9 arg   ncio            287 40781 0.00704 0.693 0.00488
## 10 arg   penalti         284 40781 0.00696 0.693 0.00483
## # … with 4,763 more rows
…
bi grams
OS bi grams são sequencias de palavras, a seguir será procurada as sequencias de duas palavras, o que nos permite estudar um pouco melhor o contexto do seu uso.

# Bi grams
book_bigrams <- original_books %>%
  unnest_tokens(bigram, text, token = "ngrams", n = 2)

book_bigrams %>%
  count(bigram, sort = TRUE)

## # A tibble: 15,106 x 3
## # Groups:   book [2]
##    book  bigram                    n
##    <chr> <chr>                 <int>
##  1 br    brasil copa            2039
##  2 br    copa mundo             1459
##  3 br    hoje brasil            1215
##  4 arg   argentina copa         1122
##  5 arg   isl ndia                818
##  6 br    estreia brasil          764
##  7 br    ansioso estreia         684
##  8 br    est ansioso             680
##  9 arg   classificou argentina   660
## 10 arg   copa segundo            649
## # … with 15,096 more rows
…
bigrams_separated <- book_bigrams %>%
  separate(bigram, c("word1", "word2"), sep = " ")

bigrams_filtered <- bigrams_separated %>%
  filter(!word1 %in% stop_words$word) %>%
  filter(!word2 %in% stop_words$word)

# new bigram counts:
bigram_counts <- bigrams_filtered %>% 
  count(word1, word2, sort = TRUE)

bigram_counts

## # A tibble: 15,106 x 4
## # Groups:   book [2]
##    book  word1       word2         n
##    <chr> <chr>       <chr>     <int>
##  1 br    brasil      copa       2039
##  2 br    copa        mundo      1459
##  3 br    hoje        brasil     1215
##  4 arg   argentina   copa       1122
##  5 arg   isl         ndia        818
##  6 br    estreia     brasil      764
##  7 br    ansioso     estreia     684
##  8 br    est         ansioso     680
##  9 arg   classificou argentina   660
## 10 arg   copa        segundo     649
## # … with 15,096 more rows
Caso seja preciso juntar novamente:

bigrams_united <- bigrams_filtered %>%
  unite(bigram, word1, word2, sep = " ")

bigrams_united

## # A tibble: 71,208 x 2
## # Groups:   book [2]
##    book  bigram             
##    <chr> <chr>              
##  1 arg   isl ndia           
##  2 arg   ndia pouco         
##  3 arg   pouco mil          
##  4 arg   mil habitantes     
##  5 arg   habitantes montaram
##  6 arg   montaram sele      
##  7 arg   sele est           
##  8 arg   est copa           
##  9 arg   copa fizeram       
## 10 arg   fizeram gol        
## # … with 71,198 more rows
Analisando bi grams com tf-idf
Também é possível aplicar a transformação tf-idf em bigrams, veja:

#bi grams com tf idf
bigram_tf_idf <- bigrams_united %>%
  count(book, bigram) %>%
  bind_tf_idf(bigram, book, n) %>%
  arrange(desc(tf_idf))

bigram_tf_idf

## # A tibble: 15,106 x 6
## # Groups:   book [2]
##    book  bigram                    n     tf   idf  tf_idf
##    <chr> <chr>                 <int>  <dbl> <dbl>   <dbl>
##  1 br    hoje brasil            1215 0.0399 0.693 0.0277 
##  2 br    ansioso estreia         684 0.0225 0.693 0.0156 
##  3 br    est ansioso             680 0.0223 0.693 0.0155 
##  4 br    letras letras           620 0.0204 0.693 0.0141 
##  5 arg   classificou argentina   660 0.0162 0.693 0.0112 
##  6 arg   copa segundo            649 0.0159 0.693 0.0110 
##  7 arg   messi repito            649 0.0159 0.693 0.0110 
##  8 arg   repito classificou      649 0.0159 0.693 0.0110 
##  9 arg   segundo especialistas   649 0.0159 0.693 0.0110 
## 10 br    brasil letras           313 0.0103 0.693 0.00713
## # … with 15,096 more rows

Analisando contexto de palavras negativas:
Uma das abordagens interessantes ao estudar as bi-grams é a de avaliar o contexto das palavras negativas, veja:

bigrams_separated %>%
  filter(word1 == "nao") %>%
  count(word1, word2, sort = TRUE)

## # A tibble: 35 x 4
## # Groups:   book [2]
##    book  word1 word2         n
##    <chr> <chr> <chr>     <int>
##  1 br    nao   copa         10
##  2 arg   nao   abrir         3
##  3 arg   nao   convoca       3
##  4 arg   nao   ruim          3
##  5 br    nao   acredito      2
##  6 arg   nao   achei         1
##  7 arg   nao   acordem       1
##  8 arg   nao   argentina     1
##  9 arg   nao   assisti       1
## 10 arg   nao   compara       1
## # … with 25 more rows
…
         nexcl = str_count(text, fixed("!")),
         nquest = str_count(text, fixed("?")),
         npunct = str_count(text, "[[:punct:]]"),
         nword = str_count(text, "\\w+"),
         nsymb = str_count(text, "&|@|#|\\$|%|\\*|\\^"),
         nsmile = str_count(text, "((?::|;|=)(?:-)?(?:\\)|D|P))"),
         text = clean_tweets(text) %>% enc2native() %>% rm_accent())%>%
  unnest_tokens(word, text) %>% 
  anti_join(stop_words)%>%
  group_by(book,line,length, ncap, ncap_len, nexcl, nquest, npunct, nword, nsymb, nsmile)%>%
  summarise(text=paste(word,collapse = " ")) %>% 
  select(text,everything())%T>% 
  print()

## # A tibble: 7,995 x 12
## # Groups:   book, line, length, ncap, ncap_len, nexcl, nquest, npunct, nword,
## #   nsymb [7,995]
##    text  book   line length  ncap ncap_len nexcl nquest npunct nword nsymb
##    <chr> <chr> <int>  <int> <int>    <dbl> <int>  <int>  <int> <int> <int>
##  1 isl … arg       1     NA     7  NA          0      0      6    24     1
##  2 pau … arg       2    108     6   0.0556     0      0      2    20     1
##  3 mess… arg       3     NA    10  NA          0      0      3    24     1
##  4 minu… arg       4     NA     2  NA          0      0      2    24     1
##  5 requ… arg       5    129    23   0.178      0      0     15    21     1
##  6 bras… arg       6     NA    11  NA          0      0     12    20     1
##  7 dupl… arg       7    123    84   0.683      0      0      8    21     1
##  8 mess… arg       8     NA    10  NA          0      0      3    24     1
##  9 mess… arg       9     NA    10  NA          0      0      3    24     1
## 10 mess… arg      10     NA    10  NA          0      0      3    24     1
## # … with 7,985 more rows, and 1 more variable: nsmile <int>
…
