Um estudo sobre modelos de aprendizagem baseados em árvores com desafio do Kaggle
…
Arrumar a base de dados é uma tarefa longa e que geralmente consome grande parte no tempo em um projeto de ciência de dados. Não adianta usar o algorítimo mais poderoso de machine learning se a base de dados não estiver arrumada de maneira que possibilite a análise dos dados.

Para obter informações da amostra, confira no link do dataset da competição no Kaggle. Na página é possível conferir a descrição da amostra e nela nota-se que alguns dos valores faltantes possuem significado, então é necessário rotulá-los para que o R possa interpretar estes valores da maneira correta.

Status da amostra

Conferindo o status da amostra com a função df_status() do pacote funModeling:

full %>% 
  df_status(print_results = F) %>% 
  as_tibble() %>%
  arrange(-p_na, -p_zeros)

## # A tibble: 80 x 9
##    variable     q_zeros p_zeros  q_na  p_na q_inf p_inf type      unique
##    <chr>          <int>   <dbl> <int> <dbl> <int> <dbl> <fct>      <int>
##  1 PoolQC             0       0  2909 99.7      0     0 character      3
##  2 MiscFeature        0       0  2814 96.4      0     0 character      4
##  3 Alley              0       0  2721 93.2      0     0 character      2
##  4 Fence              0       0  2348 80.4      0     0 character      4
##  5 SalePrice          0       0  1459 50.0      0     0 numeric      663
##  6 FireplaceQu        0       0  1420 48.6      0     0 character      5
##  7 LotFrontage        0       0   486 16.6      0     0 integer      128
##  8 GarageYrBlt        0       0   159  5.45     0     0 integer      103
##  9 GarageFinish       0       0   159  5.45     0     0 character      3
## 10 GarageQual         0       0   159  5.45     0     0 character      5
## # ... with 70 more rows
…
full %<>% mutate(Fence = as.factor(Fence))

Aparentemente não parece existir uma relação ordinal sobre o tipo de cerca quanto ao pre;o de venda da casa, portanto foi convertida para fator

FirePlace

Variáveis relacionadas com lareira. Segundo a descrição, temos:

full %>% 
  select(names(full)[names(full) %>% str_detect("Fireplace")], SalePrice)

## # A tibble: 2,919 x 3
##    Fireplaces FireplaceQu SalePrice
##         <int> <chr>           <dbl>
##  1          0 <NA>             12.2
##  2          1 TA               12.1
##  3          1 TA               12.3
##  4          1 Gd               11.8
##  5          1 TA               12.4
##  6          0 <NA>             11.9
##  7          1 Gd               12.6
##  8          2 TA               12.2
##  9          2 TA               11.8
## 10          2 TA               11.7
## # ... with 2,909 more rows
…
full %<>% 
  mutate(MasVnrType = if_else(is.na(MasVnrType), "None", MasVnrType)) %>% 
  mutate(MasVnrType = as.integer(revalue(MasVnrType, c('None'=0, 'BrkCmn'=0, 'BrkFace'=1, 'Stone'=2)))) %>% 
  mutate(MasVnrArea = if_else(is.na(MasVnrArea), 0, 1))

Variáveis restantes com poucos NA

A estratégia adotada para imputar estes dados será tomada de maneira arbitrária. Os valores faltantes serão preenchidos com o valor comum mais frequente daquela variável. As variáveis que restam são:

full %>% 
  df_status(print_results = F) %>% 
  as_tibble() %>%
  arrange(-p_na, -p_zeros)

## # A tibble: 81 x 9
##    variable    q_zeros p_zeros  q_na    p_na q_inf p_inf type      unique
##    <chr>         <int>   <dbl> <int>   <dbl> <int> <dbl> <fct>      <int>
##  1 SalePrice         0     0    1459 50.0        0     0 numeric      663
##  2 MSZoning          0     0       4  0.140      0     0 character      5
##  3 Utilities         0     0       2  0.0700     0     0 character      2
##  4 Functional        0     0       2  0.0700     0     0 character      7
##  5 Exterior1st       0     0       1  0.0300     0     0 character     15
##  6 Exterior2nd       0     0       1  0.0300     0     0 character     16
##  7 Electrical        0     0       1  0.0300     0     0 character      5
##  8 KitchenQual       0     0       1  0.0300     0     0 character      4
##  9 SaleType          0     0       1  0.0300     0     0 character      9
## 10 PoolArea       2906    99.6     0  0          0     0 integer       14
## # ... with 71 more rows
…
full[is.na(full$KitchenQual),"KitchenQual"] <- full$KitchenQual %>% table %>% sort %>% names %>% last
full$KitchenQual = as.integer(revalue(full$KitchenQual, Qualidade))

## The following `from` values were not present in `x`: None, Po, Fa, TA, Gd, Ex

# full[is.na(full$Electrical),"Electrical"] <- 3

Status da base no momento:

full %>% 
  df_status(print_results = F) %>% 
  as_tibble() %>%
  arrange(-p_na,-p_zeros, type)

## # A tibble: 80 x 9
##    variable      q_zeros p_zeros  q_na  p_na q_inf p_inf type    unique
##    <chr>           <int>   <dbl> <int> <dbl> <int> <dbl> <fct>    <int>
##  1 SalePrice           0     0    1459  50.0     0     0 numeric    663
##  2 PoolArea         2906    99.6     0   0       0     0 integer     14
##  3 PoolQC           2906    99.6     0   0       0     0 numeric      4
##  4 3SsnPorch        2882    98.7     0   0       0     0 integer     31
##  5 LowQualFinSF     2879    98.6     0   0       0     0 integer     36
##  6 MiscVal          2816    96.5     0   0       0     0 integer     38
##  7 BsmtHalfBath     2744    94.0     0   0       0     0 numeric      3
##  8 ScreenPorch      2663    91.2     0   0       0     0 integer    121
##  9 BsmtFinSF2       2572    88.1     0   0       0     0 numeric    272
## 10 EnclosedPorch    2460    84.3     0   0       0     0 integer    183
## # ... with 70 more rows
…
rfFit1$finalModel$importance %>% 
  as.data.frame %>%
  mutate(row = rownames(.)) %>% 
  arrange(desc(IncNodePurity)) %>% 
  as_tibble()

## # A tibble: 218 x 2
##    IncNodePurity row        
##            <dbl> <chr>      
##  1         77.6  OverallQual
##  2         33.7  GrLivArea  
##  3         16.3  YearBuilt  
##  4         10.5  KitchenQual
##  5          9.57 GarageCars 
##  6          8.88 TotalBsmtSF
##  7          7.48 GarageArea 
##  8          7.42 `1stFlrSF` 
##  9          5.84 ExterQualTA
## 10          4.41 FireplaceQu
## # ... with 208 more rows
…
