Modelos baseados em árvore no R: desafio Ames Housing do Kaggle · Fellipe Gomes
…
## [1] 0.8098286
Um pouco diferente do resultado da correlação de Pearson pois avalia relações lineares, já a correlação de Spearman avalia relações monótonas, sejam elas lineares ou não.
Análise exploratória e input de NAs
Arrumar a base de dados é uma tarefa longa e que geralmente consome grande parte no tempo em um projeto de ciência de dados. Não adianta usar o algorítimo mais poderoso de machine learning se a base de dados não estiver arrumada de maneira que possibilite a análise dos dados.
Para obter informações da amostra, confira no link do dataset da competição no Kaggle. Na página é possível conferir a descrição da amostra e nela nota-se que alguns dos valores faltantes possuem significado, então é necessário rotulá-los para que o R possa interpretar estes valores da maneira correta.
Status da amostra
Conferindo o status da amostra com a função df_status() do pacote funModeling:

full %>% 
  df_status(print_results = F) %>% 
  as_tibble() %>%
  arrange(-p_na, -p_zeros)

## # A tibble: 80 x 9
##    variable     q_zeros p_zeros  q_na  p_na q_inf p_inf type      unique
##    <chr>          <int>   <dbl> <int> <dbl> <int> <dbl> <chr>      <int>
##  1 PoolQC             0       0  2909 99.7      0     0 character      3
##  2 MiscFeature        0       0  2814 96.4      0     0 character      4
##  3 Alley              0       0  2721 93.2      0     0 character      2
##  4 Fence              0       0  2348 80.4      0     0 character      4
##  5 SalePrice          0       0  1459 50.0      0     0 numeric      663
##  6 FireplaceQu        0       0  1420 48.6      0     0 character      5
##  7 LotFrontage        0       0   486 16.6      0     0 numeric      128
##  8 GarageYrBlt        0       0   159  5.45     0     0 numeric      103
##  9 GarageFinish       0       0   159  5.45     0     0 character      3
## 10 GarageQual         0       0   159  5.45     0     0 character      5
## # … with 70 more rows
…
full %<>% mutate(Fence = as.factor(Fence))
Aparentemente não parece existir uma relação ordinal sobre o tipo de cerca quanto ao pre;o de venda da casa, portanto foi convertida para fator

FirePlace
Variáveis relacionadas com lareira. Segundo a descrição, temos:

full %>% 
  select(names(full)[names(full) %>% str_detect("Fireplace")], SalePrice)

## # A tibble: 2,919 x 3
##    Fireplaces FireplaceQu SalePrice
##         <dbl> <chr>           <dbl>
##  1          0 <NA>             12.2
##  2          1 TA               12.1
##  3          1 TA               12.3
##  4          1 Gd               11.8
##  5          1 TA               12.4
##  6          0 <NA>             11.9
##  7          1 Gd               12.6
##  8          2 TA               12.2
##  9          2 TA               11.8
## 10          2 TA               11.7
## # … with 2,909 more rows
…
full %<>% 
  mutate(MasVnrType = if_else(is.na(MasVnrType), "None", MasVnrType)) %>% 
  mutate(MasVnrType = as.integer(revalue(MasVnrType, c('None'=0, 'BrkCmn'=0, 'BrkFace'=1, 'Stone'=2)))) %>% 
  mutate(MasVnrArea = if_else(is.na(MasVnrArea), 0, 1))

Variáveis restantes com poucos NA
A estratégia adotada para imputar estes dados será tomada de maneira arbitrária. Os valores faltantes serão preenchidos com o valor comum mais frequente daquela variável. As variáveis que restam são:

full %>% 
  df_status(print_results = F) %>% 
  as_tibble() %>%
  arrange(-p_na, -p_zeros)

## # A tibble: 81 x 9
##    variable    q_zeros p_zeros  q_na  p_na q_inf p_inf type      unique
##    <chr>         <int>   <dbl> <int> <dbl> <int> <dbl> <chr>      <int>
##  1 SalePrice         0     0    1459 50.0      0     0 numeric      663
##  2 MSZoning          0     0       4  0.14     0     0 character      5
##  3 Utilities         0     0       2  0.07     0     0 character      2
##  4 Functional        0     0       2  0.07     0     0 character      7
##  5 Exterior1st       0     0       1  0.03     0     0 character     15
##  6 Exterior2nd       0     0       1  0.03     0     0 character     16
##  7 Electrical        0     0       1  0.03     0     0 character      5
##  8 KitchenQual       0     0       1  0.03     0     0 character      4
##  9 SaleType          0     0       1  0.03     0     0 character      9
## 10 PoolArea       2906    99.6     0  0        0     0 numeric       14
## # … with 71 more rows
…
to_remove <- full %>% map(~table(.x) %>% length()) %>% .[.== 1] %>% names()
full <- full %>% select(-one_of(to_remove))
Status da base no momento:

full %>% 
  df_status(print_results = F) %>% 
  as_tibble() %>%
  arrange(-p_na,-p_zeros, type)

## # A tibble: 79 x 9
##    variable      q_zeros p_zeros  q_na  p_na q_inf p_inf type    unique
##    <chr>           <int>   <dbl> <int> <dbl> <int> <dbl> <chr>    <int>
##  1 SalePrice           0     0    1459  50.0     0     0 numeric    663
##  2 PoolArea         2906    99.6     0   0       0     0 numeric     14
##  3 3SsnPorch        2882    98.7     0   0       0     0 numeric     31
##  4 LowQualFinSF     2879    98.6     0   0       0     0 numeric     36
##  5 MiscVal          2816    96.5     0   0       0     0 numeric     38
##  6 BsmtHalfBath     2744    94       0   0       0     0 numeric      3
##  7 ScreenPorch      2663    91.2     0   0       0     0 numeric    121
##  8 BsmtFinSF2       2572    88.1     0   0       0     0 numeric    272
##  9 EnclosedPorch    2460    84.3     0   0       0     0 numeric    183
## 10 HalfBath         1834    62.8     0   0       0     0 numeric      3
## # … with 69 more rows
…
rfFit1$finalModel$importance %>% 
  as.data.frame %>%
  mutate(row = rownames(.)) %>% 
  arrange(desc(IncNodePurity)) %>% 
  as_tibble()

## # A tibble: 217 x 2
##    IncNodePurity row        
##            <dbl> <chr>      
##  1         77.9  OverallQual
##  2         35.0  GrLivArea  
##  3         14.8  YearBuilt  
##  4         11.5  KitchenQual
##  5          9.75 TotalBsmtSF
##  6          9.29 GarageCars 
##  7          6.74 `1stFlrSF` 
##  8          6.33 GarageArea 
##  9          5.02 ExterQualTA
## 10          4.04 BsmtFinSF1 
## # … with 207 more rows
…
