Brasil x Argentina, tidytext e Machine Learning
…
Não poderia esquecer, além da nuvem, a função também retorna um dataframe com a frequência das palavras:

df %>% as_tibble()

## # A tibble: 13,667 x 2
##    words          freq  
##  * <fct>          <fct> 
##  1 brasil copa    2065  
##  2 copa mundo     1959  
##  3 hat trick      1327  
##  4 hoje brasil    1215  
##  5 messi          " 929"
##  6 mundo          " 914"
##  7 estreia brasil " 874"
##  8 copa           " 827"
##  9 pra copa       " 813"
## 10 hoje           " 740"
## # ... with 13,657 more rows
…
stop_words = data_frame(word = c(stopwords::stopwords("pt"), excludewords))

tidy_books <- original_books %>%
  unnest_tokens(word, text) %>% 
  anti_join(stop_words)

## Joining, by = "word"

Portando a base de dados após a limpeza e a remoção das stop words:

#Palavras mais faladas:
tidy_books %>%
  count(word, sort = TRUE) 

## # A tibble: 3,943 x 2
##    word          n
##    <chr>     <int>
##  1 copa       6993
##  2 brasil     4164
##  3 argentina  3487
##  4 mundo      2030
##  5 hoje       1825
##  6 letras     1562
##  7 nao        1517
##  8 messi      1493
##  9 estreia    1268
## 10 penalti     933
## # ... with 3,933 more rows
…
suppressMessages(library(tidyr))

book_sentiment <- tidy_books %>%
  inner_join(sentiment) %>%
  count(book,word, index = line , sentiment) %>%
  spread(sentiment, n, fill = 0) %>%
  mutate(sentiment = positive - negative) %T>%
  print

## Joining, by = "word"

## # A tibble: 3,212 x 7
##    book  word       index negative neutro positive sentiment
##    <fct> <chr>      <int>    <dbl>  <dbl>    <dbl>     <dbl>
##  1 arg   abandonar    857     1.00   0        0        -1.00
##  2 arg   absurdo      849     1.00   0        0        -1.00
##  3 arg   absurdo     1863     1.00   0        0        -1.00
##  4 arg   acougueiro  1413     1.00   0        0        -1.00
##  5 arg   afogado     2275     1.00   0        0        -1.00
##  6 arg   afogado     3659     1.00   0        0        -1.00
##  7 arg   alegria     1134     0      0        1.00      1.00
##  8 arg   alto        3055     0      1.00     0         0   
##  9 arg   amador      1592     0      1.00     0         0   
## 10 arg   amar        1811     0      1.00     0         0   
## # ... with 3,202 more rows
…
tidy_books %>%
  semi_join(bingnegative) %>%
  group_by(book, line) %>%
  summarize(negativewords = n()) %>%
  left_join(wordcounts, by = c("book", "line")) %>%
  mutate(ratio = negativewords/words) %>%
  top_n(5) %>%
  ungroup() %>% arrange(desc(ratio)) %>% filter(book=="br")

## Joining, by = "word"

## Selecting by ratio

## # A tibble: 683 x 5
##    book   line negativewords words ratio
##    <fct> <int>         <int> <int> <dbl>
##  1 br     2580             2     7 0.286
##  2 br        2             1     4 0.250
##  3 br        7             1     4 0.250
##  4 br       10             1     4 0.250
##  5 br       20             1     4 0.250
##  6 br       25             1     4 0.250
##  7 br       34             1     4 0.250
##  8 br       58             1     4 0.250
##  9 br       65             1     4 0.250
## 10 br       70             1     4 0.250
## # ... with 673 more rows
…
book_words <- left_join(book_words, total_words)

## Joining, by = "book"

# tf-idf:
book_words <- book_words %>%
  bind_tf_idf(word, book, n)

book_words %>%
  arrange(desc(tf_idf))

## # A tibble: 4,802 x 7
##    book  word              n total      tf   idf  tf_idf
##    <fct> <chr>         <int> <int>   <dbl> <dbl>   <dbl>
##  1 br    letras         1562 30006 0.0521  0.693 0.0361 
##  2 arg   penalti         933 40244 0.0232  0.693 0.0161 
##  3 br    ansioso         688 30006 0.0229  0.693 0.0159 
##  4 arg   classificou     666 40244 0.0165  0.693 0.0115 
##  5 arg   segundo         654 40244 0.0163  0.693 0.0113 
##  6 arg   especialistas   649 40244 0.0161  0.693 0.0112 
##  7 arg   repito          649 40244 0.0161  0.693 0.0112 
##  8 br    icon            248 30006 0.00827 0.693 0.00573
##  9 arg   silencio        290 40244 0.00721 0.693 0.00499
## 10 arg   colocou         270 40244 0.00671 0.693 0.00465
## # ... with 4,792 more rows
…
bi grams

OS bi grams são sequencias de palavras, a seguir será procurada as sequencias de duas palavras, o que nos permite estudar um pouco melhor o contexto do seu uso.

# Bi grams
book_bigrams <- original_books %>%
  unnest_tokens(bigram, text, token = "ngrams", n = 2)

book_bigrams %>%
  count(bigram, sort = TRUE)

## # A tibble: 12,027 x 3
## # Groups:   book [2]
##    book  bigram                    n
##    <fct> <chr>                 <int>
##  1 br    brasil copa            2030
##  2 br    copa mundo             1459
##  3 br    hoje brasil            1215
##  4 arg   argentina copa         1119
##  5 br    estreia brasil          856
##  6 br    ansioso estreia         685
##  7 arg   classificou argentina   660
##  8 arg   copa segundo            649
##  9 arg   messi repito            649
## 10 arg   repito classificou      649
## # ... with 12,017 more rows
…
bigrams_separated <- book_bigrams %>%
  separate(bigram, c("word1", "word2"), sep = " ")

bigrams_filtered <- bigrams_separated %>%
  filter(!word1 %in% stop_words$word) %>%
  filter(!word2 %in% stop_words$word)

# new bigram counts:
bigram_counts <- bigrams_filtered %>% 
  count(word1, word2, sort = TRUE)

bigram_counts

## # A tibble: 12,027 x 4
## # Groups:   book [2]
##    book  word1       word2           n
##    <fct> <chr>       <chr>       <int>
##  1 br    brasil      copa         2030
##  2 br    copa        mundo        1459
##  3 br    hoje        brasil       1215
##  4 arg   argentina   copa         1119
##  5 br    estreia     brasil        856
##  6 br    ansioso     estreia       685
##  7 arg   classificou argentina     660
##  8 arg   copa        segundo       649
##  9 arg   messi       repito        649
## 10 arg   repito      classificou   649
## # ... with 12,017 more rows

Caso seja preciso juntar novamente:

bigrams_united <- bigrams_filtered %>%
  unite(bigram, word1, word2, sep = " ")

bigrams_united

## # A tibble: 62,255 x 3
## # Groups:   book [2]
##    book   line bigram             
##    <fct> <int> <chr>              
##  1 arg       1 islandia pouco     
##  2 arg       1 pouco mil          
##  3 arg       1 mil habitantes     
##  4 arg       1 habitantes montaram
##  5 arg       1 montaram selecao   
##  6 arg       1 selecao estao      
##  7 arg       1 estao copa         
##  8 arg       1 copa fizeram       
##  9 arg       1 fizeram gol        
## 10 arg       1 gol argentina      
## # ... with 62,245 more rows

Analisando bi grams com tf-idf

Também é possível aplicar a transformação tf-idf em bigrams, veja:

#bi grams com tf idf
bigram_tf_idf <- bigrams_united %>%
  count(book, bigram) %>%
  bind_tf_idf(bigram, book, n) %>%
  arrange(desc(tf_idf))

bigram_tf_idf

## # A tibble: 12,027 x 6
## # Groups:   book [2]
##    book  bigram                    n     tf   idf  tf_idf
##    <fct> <chr>                 <int>  <dbl> <dbl>   <dbl>
##  1 br    hoje brasil            1215 0.0467 0.693 0.0324 
##  2 br    ansioso estreia         685 0.0263 0.693 0.0183 
##  3 br    letras letras           620 0.0238 0.693 0.0165 
##  4 arg   classificou argentina   660 0.0182 0.693 0.0126 
##  5 arg   copa segundo            649 0.0179 0.693 0.0124 
##  6 arg   messi repito            649 0.0179 0.693 0.0124 
##  7 arg   repito classificou      649 0.0179 0.693 0.0124 
##  8 arg   segundo especialistas   649 0.0179 0.693 0.0124 
##  9 br    brasil letras           313 0.0120 0.693 0.00834
## 10 br    letras brasil           313 0.0120 0.693 0.00834
## # ... with 12,017 more rows

Analisando contexto de palavras negativas:

Uma das abordagens interessantes ao estudar as bi-grams é a de avaliar o contexto das palavras negativas, veja:

bigrams_separated %>%
  filter(word1 == "nao") %>%
  count(word1, word2, sort = TRUE)

## # A tibble: 280 x 4
## # Groups:   book [2]
##    book  word1 word2         n
##    <fct> <chr> <chr>     <int>
##  1 arg   nao   bom         259
##  2 arg   nao   pq          259
##  3 br    nao   blusa        97
##  4 br    nao   pode         73
##  5 arg   nao   podem        54
##  6 arg   nao   desleal      39
##  7 arg   nao   reclamou     39
##  8 br    nao   alg          34
##  9 arg   nao   passariam    31
## 10 br    nao   to           20
## # ... with 270 more rows
…
## Joining, by = "word"

## # A tibble: 7,995 x 12
## # Groups:   book, line, length, ncap, ncap_len, nexcl, nquest, npunct,
## #   nword, nsymb [7,995]
##    text  book   line length  ncap ncap_len nexcl nquest npunct nword nsymb
##    <chr> <fct> <int>  <int> <int>    <dbl> <int>  <int>  <int> <int> <int>
##  1 isla~ arg       1    139     7   0.0504     0      0      7    21     1
##  2 pau ~ arg       2    108     6   0.0556     0      0      2    20     1
##  3 mess~ arg       3    140    10   0.0714     0      0      4    24     1
##  4 minu~ arg       4    140     2   0.0143     0      0      3    22     1
##  5 requ~ arg       5    129    23   0.178      0      0     15    21     1
##  6 bras~ arg       6    139    11   0.0791     0      0     13    20     1
##  7 dupl~ arg       7    123    84   0.683      0      0      8    21     1
##  8 mess~ arg       8    140    10   0.0714     0      0      4    24     1
##  9 mess~ arg       9    140    10   0.0714     0      0      4    24     1
## 10 mess~ arg      10    140    10   0.0714     0      0      4    24     1
## # ... with 7,985 more rows, and 1 more variable: nsmile <int>
…
